{
  "project_info": {
    "project_number": "519865977031",
    "firebase_url": "https://mercato-bg.firebaseio.com",
    "project_id": "mercato-bg",
    "storage_bucket": "mercato-bg.appspot.com"
  },
  "client": [
    {
      "client_info": {
        "mobilesdk_app_id": "1:519865977031:android:3805d30faadd665127d6e2",
        "android_client_info": {
          "package_name": "com.zerosdev.mercato.bg.free.debug"
        }
      },
      "oauth_client": [
        {
          "client_id": "519865977031-ov4mo0k8o0iscfftb0n2c1png1r6pean.apps.googleusercontent.com",
          "client_type": 3
        }
      ],
      "api_key": [
        {
          "current_key": "AIzaSyDel3zf8eQy7jtGjOGNbVccPLYDoqDzN1I"
        }
      ],
      "services": {
        "appinvite_service": {
          "other_platform_oauth_client": [
            {
              "client_id": "519865977031-ov4mo0k8o0iscfftb0n2c1png1r6pean.apps.googleusercontent.com",
              "client_type": 3
            }
          ]
        }
      }
    }
  ],
  "configuration_version": "1"
}